<svg width="126" height="127" viewBox="0 0 126 127" fill="none" xmlns="http://www.w3.org/2000/svg">
<g clip-path="url(#clip0)">
<path d="M91.2008 42.4391C90.6211 40.8683 89.6964 39.4465 88.4947 38.2795C87.3277 37.0779 85.9069 36.1531 84.3352 35.5734C83.0605 35.0784 81.1456 34.4891 77.6185 34.3286C73.8031 34.1546 72.6592 34.1171 63 34.1171C53.3399 34.1171 52.1959 34.1536 48.3815 34.3276C44.8544 34.4891 42.9386 35.0784 41.6648 35.5734C40.0931 36.1531 38.6713 37.0779 37.5053 38.2795C36.3036 39.4465 35.3789 40.8673 34.7982 42.4391C34.3032 43.7138 33.7139 45.6296 33.5533 49.1567C33.3793 52.9711 33.3419 54.1151 33.3419 63.7752C33.3419 73.4344 33.3793 74.5783 33.5533 78.3938C33.7139 81.9208 34.3032 83.8357 34.7982 85.1104C35.3789 86.6821 36.3027 88.1029 37.5043 89.2699C38.6713 90.4716 40.0921 91.3963 41.6639 91.976C42.9386 92.472 44.8544 93.0613 48.3815 93.2219C52.1959 93.3959 53.3389 93.4324 62.999 93.4324C72.6601 93.4324 73.8041 93.3959 77.6176 93.2219C81.1446 93.0613 83.0605 92.472 84.3352 91.976C87.4902 90.759 89.9838 88.2654 91.2008 85.1104C91.6959 83.8357 92.2852 81.9208 92.4467 78.3938C92.6207 74.5783 92.6572 73.4344 92.6572 63.7752C92.6572 54.1151 92.6207 52.9711 92.4467 49.1567C92.2861 45.6296 91.6968 43.7138 91.2008 42.4391ZM63 82.3505C52.74 82.3505 44.4228 74.0342 44.4228 63.7742C44.4228 53.5143 52.74 45.198 63 45.198C73.259 45.198 81.5762 53.5143 81.5762 63.7742C81.5762 74.0342 73.259 82.3505 63 82.3505ZM82.3107 48.8048C79.9132 48.8048 77.9694 46.8611 77.9694 44.4636C77.9694 42.0661 79.9132 40.1223 82.3107 40.1223C84.7082 40.1223 86.6519 42.0661 86.6519 44.4636C86.651 46.8611 84.7082 48.8048 82.3107 48.8048Z" fill="#262424"/>
<path d="M75.0586 63.7743C75.0586 70.4342 69.6599 75.8329 63 75.8329C56.3401 75.8329 50.9414 70.4342 50.9414 63.7743C50.9414 57.1144 56.3401 51.7157 63 51.7157C69.6599 51.7157 75.0586 57.1144 75.0586 63.7743Z" fill="#262424"/>
<path d="M116.913 0.774292H9.0872C4.06824 0.774292 0 4.84253 0 9.8615V117.687C0 122.706 4.06824 126.774 9.0872 126.774H116.913C121.932 126.774 126 122.706 126 117.687V9.8615C126 4.84253 121.932 0.774292 116.913 0.774292V0.774292ZM98.9576 78.6889C98.7826 82.5399 98.1703 85.1691 97.2762 87.4704C95.3969 92.3298 91.5555 96.1712 86.6961 98.0505C84.3957 98.9445 81.7656 99.5559 77.9156 99.7319C74.0579 99.9078 72.8255 99.9501 63.001 99.9501C53.1755 99.9501 51.944 99.9078 48.0854 99.7319C44.2354 99.5559 41.6052 98.9445 39.3048 98.0505C36.89 97.1421 34.704 95.7184 32.8968 93.8775C31.0568 92.0712 29.6331 89.8843 28.7247 87.4704C27.8307 85.17 27.2184 82.5399 27.0434 78.6899C26.8656 74.8312 26.8242 73.5988 26.8242 63.7743C26.8242 53.9498 26.8656 52.7174 27.0424 48.8597C27.2174 45.0087 27.8288 42.3795 28.7228 40.0782C29.6312 37.6643 31.0559 35.4774 32.8968 33.6711C34.7031 31.8302 36.89 30.4065 39.3039 29.498C41.6052 28.604 44.2344 27.9926 48.0854 27.8167C51.9431 27.6408 53.1755 27.5985 63 27.5985C72.8245 27.5985 74.0569 27.6408 77.9146 27.8177C81.7656 27.9926 84.3948 28.604 86.6961 29.4971C89.11 30.4055 91.2969 31.8302 93.1042 33.6711C94.9441 35.4783 96.3688 37.6643 97.2762 40.0782C98.1712 42.3795 98.7826 45.0087 98.9585 48.8597C99.1344 52.7174 99.1758 53.9498 99.1758 63.7743C99.1758 73.5988 99.1344 74.8312 98.9576 78.6889Z" fill="#262424"/>
</g>
<defs>
<clipPath id="clip0">
<rect width="126" height="126" fill="white" transform="translate(0 0.774292)"/>
</clipPath>
</defs>
</svg>
