<svg width="126" height="127" viewBox="0 0 126 127" fill="none" xmlns="http://www.w3.org/2000/svg">
<g clip-path="url(#clip0)">
<path d="M81.8588 29.9099C69.3453 27.5294 56.6549 27.5294 44.1387 29.9099C38.6645 31.1291 31.7774 37.7287 30.4309 43.0371C28.1914 53.3083 28.1914 63.7205 30.4309 73.9917C31.7774 79.3001 38.6645 85.8996 44.1387 87.1189C44.1401 87.1192 44.1415 87.1194 44.1429 87.1197C44.3868 87.1675 44.5645 87.3788 44.5645 87.6273V102.674C44.5645 103.426 45.4824 103.796 46.005 103.252L53.152 95.9167C53.152 95.9167 58.8471 90.0703 59.8712 89.0191C59.9713 88.9163 60.1096 88.8607 60.2528 88.8646C67.4686 89.0645 74.6922 88.4817 81.8588 87.1192C87.333 85.8999 94.2229 79.3003 95.5666 73.9919C97.8088 63.7208 97.8088 53.3086 95.5666 43.0374C94.2226 37.7287 87.3358 31.1291 81.8588 29.9099ZM82.0495 74.7578C80.9547 77.0824 79.3616 79.0164 77.0635 80.2509C76.4152 80.5992 75.6402 80.7118 74.9084 80.9371C74.0668 80.6816 73.2647 80.5099 72.5199 80.2008C64.8017 76.9987 57.6984 72.8675 52.0718 66.5348C48.8721 62.9336 46.3674 58.868 44.2507 54.5654C43.2468 52.525 42.4008 50.4047 41.5385 48.2982C40.7519 46.3772 41.9103 44.3927 43.1299 42.9453C44.2742 41.587 45.7467 40.5474 47.3415 39.7813C48.5862 39.1833 49.814 39.528 50.7231 40.5831C52.6883 42.864 54.4934 45.2616 55.9552 47.9056C56.854 49.5319 56.6074 51.5197 54.9784 52.6265C54.5825 52.8955 54.2217 53.2112 53.8528 53.5151C53.5294 53.7813 53.2249 54.0504 53.0032 54.4109C52.5979 55.0703 52.5785 55.8486 52.8395 56.5658C54.8484 62.0865 58.2345 66.3794 63.7911 68.6916C64.6806 69.0615 65.5733 69.4923 66.5977 69.3728C68.3132 69.1724 68.8687 67.2907 70.0708 66.3075C71.2458 65.3467 72.7474 65.334 74.0131 66.135C75.2791 66.9362 76.5064 67.7963 77.7262 68.6656C78.9237 69.5188 80.1158 70.3535 81.2204 71.3261C82.2818 72.2612 82.6476 73.4882 82.0495 74.7578ZM72.0841 56.7676C71.605 56.7762 71.7933 56.7668 71.9755 56.7615C71.2033 56.7344 70.7833 56.2799 70.7004 55.5409C70.6398 55.0009 70.592 54.4537 70.4631 53.9284C70.2093 52.8938 69.6594 51.935 68.7893 51.3011C68.3785 51.0016 67.9129 50.7832 67.4252 50.6427C66.8056 50.4639 66.1622 50.5131 65.544 50.3616C64.8727 50.1973 64.5014 49.6535 64.6068 49.0237C64.7027 48.4506 65.2604 48.0032 65.8866 48.0485C69.8007 48.3311 72.5981 50.3547 72.9973 54.9627C73.0255 55.2879 73.0587 55.6313 72.9866 55.9423C72.8693 56.448 72.508 56.7112 72.1427 56.759C72.1726 56.7596 72.1668 56.7621 72.0841 56.7676ZM69.6503 46.2285C68.4493 45.6404 67.1504 45.2749 65.8338 45.0571C65.2584 44.9619 64.677 44.9042 64.0989 44.8237C63.3983 44.7264 63.0245 44.2799 63.0574 43.5895C63.0883 42.9425 63.5611 42.4772 64.2661 42.517C66.583 42.6486 68.8208 43.1493 70.8806 44.2401C75.0693 46.4582 77.4619 49.9596 78.1603 54.6348C78.1921 54.8466 78.2427 55.0565 78.2587 55.2691C78.2985 55.7938 78.3232 56.3194 78.3635 57.0114C78.3469 57.1375 78.3381 57.4339 78.2645 57.7131C77.9966 58.7267 76.46 58.8536 76.1061 57.8307C76.0013 57.5271 75.9855 57.1818 75.985 56.855C75.9814 54.7167 75.5166 52.5806 74.4383 50.7202C73.3299 48.8086 71.6362 47.2011 69.6503 46.2285ZM82.5928 60.6776C81.7836 60.6872 81.4194 60.0101 81.3669 59.2844C81.263 57.8478 81.1911 56.4048 80.9928 54.9802C79.9477 47.4597 73.9509 41.2378 66.4655 39.9027C65.3392 39.7017 64.186 39.6488 63.0452 39.5291C62.3239 39.4534 61.3791 39.4097 61.2193 38.5131C61.0852 37.7613 61.7198 37.1627 62.4356 37.1243C62.6302 37.1138 62.826 37.1227 63.0214 37.1235C72.7162 37.3953 63.6131 37.1445 63.0474 37.1249C73.1312 37.4188 81.4103 44.1151 83.1859 54.0871C83.4886 55.7877 83.5964 57.5265 83.7311 59.2526C83.7875 59.9783 83.3764 60.6682 82.5928 60.6776Z" fill="#262424"/>
<path d="M0 0.774292V126.774H126V0.774292H0ZM102.849 75.6395L102.824 75.7391C100.811 83.8758 91.7374 92.607 83.4043 94.4235L83.3103 94.4428C76.5725 95.7285 69.7849 96.3699 63.0001 96.3699C61.0031 96.3699 59.0061 96.3077 57.0102 96.196L47.8076 105.762C45.5294 108.134 41.5233 106.519 41.5233 103.232V94.1492C33.5012 91.8583 25.1029 83.5286 23.1734 75.7388L23.1512 75.6392C20.6629 64.276 20.6629 52.7523 23.1512 41.389L23.1734 41.2895C25.1889 33.1527 34.2629 24.4215 42.5932 22.6051L42.69 22.5857C56.1656 20.0145 69.8319 20.0145 83.3103 22.5857L83.4043 22.6051C91.7374 24.4215 100.811 33.1527 102.824 41.2895L102.849 41.389C105.337 52.7526 105.337 64.2762 102.849 75.6395Z" fill="#262424"/>
</g>
<defs>
<clipPath id="clip0">
<rect y="0.774292" width="126" height="126" rx="8" fill="white"/>
</clipPath>
</defs>
</svg>
